%YAML 1.1
%TAG !u! tag:unity3d.com,2011:
--- !u!74 &7400000
AnimationClip:
  m_ObjectHideFlags: 0
  m_CorrespondingSourceObject: {fileID: 0}
  m_PrefabInstance: {fileID: 0}
  m_PrefabAsset: {fileID: 0}
  m_Name: Coin
  serializedVersion: 6
  m_Legacy: 0
  m_Compressed: 0
  m_UseHighQualityCurve: 1
  m_RotationCurves: []
  m_CompressedRotationCurves: []
  m_EulerCurves: []
  m_PositionCurves: []
  m_ScaleCurves: []
  m_FloatCurves: []
  m_PPtrCurves:
  - curve:
    - time: 0
      value: {fileID: 21300000, guid: c850f708ec531ef4da696bfdc419ed75, type: 3}
    - time: 0.083333336
      value: {fileID: 21300000, guid: c16fd8387dbf13d4ba75bef5e1f4a56f, type: 3}
    - time: 0.16666667
      value: {fileID: 21300000, guid: 94da6c8d45bc11b4580553976c6ccbf5, type: 3}
    - time: 0.25
      value: {fileID: 21300000, guid: ea75949d6c3a2b64fad488ceec1c3553, type: 3}
    - time: 0.33333334
      value: {fileID: 21300000, guid: a05270df2856ece43a0c482a59e542dc, type: 3}
    - time: 0.41666666
      value: {fileID: 21300000, guid: eb9fa4b0b04e8a74391218b1e3dbf3d4, type: 3}
    - time: 0.5
      value: {fileID: 21300000, guid: 410a0a309ea50fb4898e97d8ce9efcd2, type: 3}
    - time: 0.5833333
      value: {fileID: 21300000, guid: f5f431660357e194eae37a634bfc1e5d, type: 3}
    - time: 0.6666667
      value: {fileID: 21300000, guid: dc30c44e204489a4aae9c70912a2f0ee, type: 3}
    attribute: m_Sprite
    path: 
    classID: 212
    script: {fileID: 0}
  m_SampleRate: 12
  m_WrapMode: 0
  m_Bounds:
    m_Center: {x: 0, y: 0, z: 0}
    m_Extent: {x: 0, y: 0, z: 0}
  m_ClipBindingConstant:
    genericBindings:
    - serializedVersion: 2
      path: 0
      attribute: 0
      script: {fileID: 0}
      typeID: 212
      customType: 23
      isPPtrCurve: 1
    pptrCurveMapping:
    - {fileID: 21300000, guid: c850f708ec531ef4da696bfdc419ed75, type: 3}
    - {fileID: 21300000, guid: c16fd8387dbf13d4ba75bef5e1f4a56f, type: 3}
    - {fileID: 21300000, guid: 94da6c8d45bc11b4580553976c6ccbf5, type: 3}
    - {fileID: 21300000, guid: ea75949d6c3a2b64fad488ceec1c3553, type: 3}
    - {fileID: 21300000, guid: a05270df2856ece43a0c482a59e542dc, type: 3}
    - {fileID: 21300000, guid: eb9fa4b0b04e8a74391218b1e3dbf3d4, type: 3}
    - {fileID: 21300000, guid: 410a0a309ea50fb4898e97d8ce9efcd2, type: 3}
    - {fileID: 21300000, guid: f5f431660357e194eae37a634bfc1e5d, type: 3}
    - {fileID: 21300000, guid: dc30c44e204489a4aae9c70912a2f0ee, type: 3}
  m_AnimationClipSettings:
    serializedVersion: 2
    m_AdditiveReferencePoseClip: {fileID: 0}
    m_AdditiveReferencePoseTime: 0
    m_StartTime: 0
    m_StopTime: 0.75
    m_OrientationOffsetY: 0
    m_Level: 0
    m_CycleOffset: 0
    m_HasAdditiveReferencePose: 0
    m_LoopTime: 1
    m_LoopBlend: 0
    m_LoopBlendOrientation: 0
    m_LoopBlendPositionY: 0
    m_LoopBlendPositionXZ: 0
    m_KeepOriginalOrientation: 0
    m_KeepOriginalPositionY: 1
    m_KeepOriginalPositionXZ: 0
    m_HeightFromFeet: 0
    m_Mirror: 0
  m_EditorCurves: []
  m_EulerEditorCurves: []
  m_HasGenericRootTransform: 0
  m_HasMotionFloatCurves: 0
  m_Events: []
